
[
	{
		"id": "pettas_vera",
		"lat": -1057,
		"lng": 296.75,
		"max_players": 8,
		"initial_rewards": [
			["rewards.meseta", 5000]
		],
		"ranks": [
			{
				"enemy_level": 17,
				"recommended_power": 1184,
				"rewards": [
					["rewards.meseta", 10000]
				]
			},
			{
				"enemy_level": 40,
				"recommended_power": 1898,
				"rewards": [
					["rewards.meseta", 10000],
					["items.photon_scale", 8]
				]
			},
			{
				"enemy_level": 65,
				"recommended_power": 2878,
				"rewards": [
					["rewards.meseta", 10000],
					["items.augment_pettas_soul", 3, 4]
				]
			}
		]
	},
	{
		"id": "nex_vera",
		"lat": -1171,
		"lng": 533,
		"max_players": 8,
		"initial_rewards": [
			["rewards.meseta", 5000]
		],
		"ranks": [
			{
				"enemy_level": 17,
				"recommended_power": 1184,
				"rewards": [
					["rewards.meseta", 10000]
				]
			},
			{
				"enemy_level": 40,
				"recommended_power": 1898,
				"rewards": [
					["rewards.meseta", 10000],
					["items.photon_scale", 8]
				]
			},
			{
				"enemy_level": 65,
				"recommended_power": 2878,
				"rewards": [
					["rewards.meseta", 10000],
					["items.augment_nex_soul", 3, 4]
				]
			}
		]
	},
	{
		"id": "mining_rig_aelio",
		"lat": -1327,
		"lng": 830,
		"max_players": 8,
		"initial_rewards": [
			["rewards.meseta", 5000]
		],
		"ranks": [
			{
				"enemy_level": 20,
				"recommended_power": 1243,
				"rewards": [
					["rewards.meseta", 10000]
				]
			},
			{
				"enemy_level": 40,
				"recommended_power": 1898,
				"rewards": [
					["rewards.meseta", 10000],
					["items.photon_scale", 8]
				]
			},
			{
				"enemy_level": 65,
				"recommended_power": 2878,
				"rewards": [
					["rewards.meseta", 10000],
					["items.augment_might", 3, 4]
				]
			}
		]
	},
	{
		"id": "dark_falz",
		"lat": -1296.5,
		"lng": 806.5,
		"max_players": 8,
		"initial_rewards": [
			["rewards.meseta", 10000]
		],
		"ranks": [
			{
				"enemy_level": 40,
				"recommended_power": 1898,
				"rewards": [
					["rewards.meseta", 20000],
					["items.photon_scale", 12]
				]
			},
			{
				"enemy_level": 65,
				"recommended_power": 2878,
				"rewards": [
					["rewards.meseta", 20000],
					["items.augment_eradi_soul", 3, 4]
				]
			}
		]
	},

	// Retem
	{
		"id": "renus_vera",
		"lat": -1389.75,
		"lng": 1438.25,
		"max_players": 8,
		"initial_rewards": [
			["rewards.meseta", 5000]
		],
		"ranks": [
			{
				"enemy_level": 32,
				"recommended_power": 1682,
				"initial_rewards": [
					["rewards.meseta", 10000]
				],
				"rewards": [
					["rewards.meseta", 10000],
					["items.photon_scale", 8]
				]
			},
			{
				"enemy_level": 45,
				"recommended_power": 2049,
				"initial_rewards": [
					["rewards.meseta", 5000]
				],
				"rewards": [
					["rewards.meseta", 10000],
					["items.photon_scale", 8]
				]
			},
			{
				"enemy_level": 65,
				"recommended_power": 2878,
				"initial_rewards": [
					["rewards.meseta", 10000]
				],
				"rewards": [
					["rewards.meseta", 10000],
					["items.photon_scale", 8],
					["items.augment_renus_soul", 3, 4]
				]
			}
		]
	},
	{
		"id": "dustyl_vera",
		"lat": -1301.5,
		"lng": 1518.5,
		"max_players": 8,
		"initial_rewards": [
			["rewards.meseta", 5000]
		],
		"ranks": [
			{
				"enemy_level": 32,
				"recommended_power": 1682,
				"rewards": [
					["rewards.meseta", 10000],
					["items.photon_scale", 8]
				]
			},
			{
				"enemy_level": 45,
				"recommended_power": 2049,
				"rewards": [
					["rewards.meseta", 10000],
					["items.photon_scale", 8]
				]
			},
			{
				"enemy_level": 65,
				"recommended_power": 2878,
				"rewards": [
					["rewards.meseta", 10000],
					["items.photon_scale", 8],
					["items.augment_dustyl_soul", 3, 4]
				]
			}
		]
	},
	{
		"id": "mining_rig_retem",
		"lat": -1681,
		"lng": 1341,
		"max_players": 8,
		"initial_rewards": [
			["rewards.meseta", 5000]
		],
		"ranks": [
			{
				"enemy_level": 45,
				"recommended_power": 2049,
				"rewards": [
					["rewards.meseta", 10000]
				]
			},
			{
				"enemy_level": 65,
				"recommended_power": 2878,
				"rewards": [
					["rewards.meseta", 10000],
					["items.augment_precision", 3, 4]
				]
			}
		]
	},

	// Kvaris
	{
		"id": "crocodylis_vera",
		"lat": -752.9,
		"lng": 864,
		"max_players": 8,
		"initial_rewards": [
			["rewards.meseta", 10000]
		],
		"ranks": [
			{
				"enemy_level": 57,
				"recommended_power": 2506,
				"rewards": [
					["rewards.meseta", 10000],
					["items.augment_crocys_soul", 3, 3],
					["items.photon_scale", 8]
				]
			},
			{
				"enemy_level": 65,
				"recommended_power": 2878,
				"rewards": [
					["rewards.meseta", 10000],
					["items.augment_crocys_soul", 3, 4]
				]
			}
		]
	},
	{
		"id": "ams_vera",
		"lat": -311,
		"lng": 478,
		"max_players": 8,
		"initial_rewards": [
			["rewards.meseta", 10000]
		],
		"ranks": [
			{
				"enemy_level": 57,
				"recommended_power": 2506,
				"rewards": [
					["rewards.meseta", 10000],
					["items.augment_ams_soul", 3, 3],
					["items.photon_scale", 8]
				]
			},
			{
				"enemy_level": 65,
				"recommended_power": 2878,
				"rewards": [
					["rewards.meseta", 10000],
					["items.augment_ams_soul", 3, 4]
				]
			}
		]
	},
	{
		"id": "mining_rig_kvaris",
		"lat": -794,
		"lng": 662,
		"max_players": 8,
		"initial_rewards": [
			["rewards.meseta", 5000]
		],
		"ranks": [
			{
				"enemy_level": 60,
				"recommended_power": 2647,
				"rewards": [
					["rewards.meseta", 10000],
					["items.photon_scale", 8],
					["items.augment_vardi_soul", 3, 3]
				]
			},
			{
				"enemy_level": 65,
				"recommended_power": 2878,
				"rewards": [
					["rewards.meseta", 10000],
					["items.augment_technique", 3, 4]
				]
			}
		]
	}
]
